Buildfile: C:\Users\dkalamat\OneDrive - Capgemini\Documents\Mendix\Orders IngredientsCheck-main\deployment\build_core.xml

deploy:
     [copy] Copying 52 files to C:\Users\dkalamat\OneDrive - Capgemini\Documents\Mendix\Orders IngredientsCheck-main\deployment
     [copy] Copying 5 files to C:\Users\dkalamat\OneDrive - Capgemini\Documents\Mendix\Orders IngredientsCheck-main\deployment\model\resources

BUILD SUCCESSFUL
Total time: 0 seconds

